{
    "page": 1,
    "total_results": 6715,
    "total_pages": 336,
    "results": [
        {
            "popularity": 18.874,
            "vote_count": 2176,
            "video": false,
            "poster_path": "/2CAL2433ZeIihfX1Hb2139CX0pW.jpg",
            "id": 19404,
            "adult": false,
            "backdrop_path": "/pVGzV02qmHVoKx9ehBNy7m2u5fs.jpg",
            "original_language": "hi",
            "original_title": "दिलवाले दुल्हनिया ले जायेंगे",
            "genre_ids": [
                35,
                18,
                10749
            ],
            "title": "Dilwale Dulhania Le Jayenge",
            "vote_average": 8.9,
            "overview": "Raj e Simran são dois jovens indianos vivendo em Londres que, acidentalmente, se conhecem durante uma viagem pela Europa. Eles se apaixonam, mas Simran está prometida a um indiano. Raj não desanima e segue seu amor até a Índia, onde os dois tentam convencer a todos que precisam ficar juntos.",
            "release_date": "1995-10-20"
        },
        {
            "popularity": 39.173,
            "vote_count": 14503,
            "video": false,
            "poster_path": "/4BSuFpQ2gd2WtO5ZK1fMjaMPMRc.jpg",
            "id": 278,
            "adult": false,
            "backdrop_path": "/j9XKiZrVeViAixVRzCta7h1VU9W.jpg",
            "original_language": "en",
            "original_title": "The Shawshank Redemption",
            "genre_ids": [
                80,
                18
            ],
            "title": "Um Sonho de Liberdade",
            "vote_average": 8.7,
            "overview": "Em 1946, Andy Dufresne (Tim Robbins), um jovem e bem sucedido banqueiro, tem a sua vida radicalmente modificada ao ser condenado por um crime que nunca cometeu, o homicídio de sua esposa e do amante dela. Ele é mandado para uma prisão que é o pesadelo de qualquer detento, a Penitenciária Estadual de Shawshank, no Maine. Lá ele irá cumprir a pena perpétua. Andy logo será apresentado a Warden Norton (Bob Gunton), o corrupto e cruel agente penitenciário, que usa a Bíblia como arma de controle e ao Capitão Byron Hadley (Clancy Brown) que trata os internos como animais. Andy faz amizade com Ellis Boyd Redding (Morgan Freeman), um prisioneiro que cumpre pena há 20 anos e controla o mercado negro da instituição.",
            "release_date": "1994-09-23"
        },
        {
            "popularity": 35.394,
            "vote_count": 11100,
            "video": false,
            "poster_path": "/oS3mn55v5jEBduZQp2ttzqxxbLQ.jpg",
            "id": 238,
            "adult": false,
            "backdrop_path": "/6xKCYgH16UuwEGAyroLU6p8HLIn.jpg",
            "original_language": "en",
            "original_title": "The Godfather",
            "genre_ids": [
                80,
                18
            ],
            "title": "O Poderoso Chefão",
            "vote_average": 8.6,
            "overview": "Em 1945, Don Corleone (Marlon Brando) é o chefe de uma mafiosa família italiana de Nova York. Ele costuma apadrinhar várias pessoas, realizando importantes favores para elas, em troca de favores futuros. Com a chegada das drogas, as famílias começam uma disputa pelo promissor mercado. Quando Corleone se recusa a facilitar a entrada dos narcóticos na cidade, não oferecendo ajuda política e policial, sua família começa a sofrer atentados para que mudem de posição. É nessa complicada época que Michael (Al Pacino), um herói de guerra nunca envolvido nos negócios da família, vê a necessidade de proteger o seu pai e tudo o que ele construiu ao longo dos anos.",
            "release_date": "1972-03-14"
        },
        {
            "popularity": 24.403,
            "vote_count": 8854,
            "video": false,
            "poster_path": "/m1UI4XnQF7NZHBXdfRBDhVQheIz.jpg",
            "id": 424,
            "adult": false,
            "backdrop_path": "/cTNYRUTXkBgPH3wP3kmPUB5U6dA.jpg",
            "original_language": "en",
            "original_title": "Schindler's List",
            "genre_ids": [
                18,
                36,
                10752
            ],
            "title": "A Lista de Schindler",
            "vote_average": 8.6,
            "overview": "A inusitada história de Oskar Schindler, um sujeito oportunista, sedutor, armador, simpático, comerciante no mercado negro, mas, acima de tudo, um homem que se relacionava muito bem com o regime nazista, tanto que era membro do próprio Partido Nazista (o que não o impediu de ser preso algumas vezes, mas sempre o libertavam rapidamente, em razão dos seus contatos). No entanto, apesar dos seus defeitos, ele amava o ser humano e assim fez o impossível, a ponto de perder a sua fortuna, mas conseguir salvar mais de mil judeus dos campos de concentração.",
            "release_date": "1993-11-30"
        },
        {
            "popularity": 83.364,
            "vote_count": 1939,
            "video": false,
            "poster_path": "/4nMc8sRRaN4RylAdk4gMzd9Q14N.jpg",
            "id": 496243,
            "adult": false,
            "backdrop_path": "/TU9NIjwzjoKPwQHoHshkFcQUCG.jpg",
            "original_language": "ko",
            "original_title": "기생충",
            "genre_ids": [
                35,
                53
            ],
            "title": "Parasita",
            "vote_average": 8.6,
            "overview": "Toda a família de Ki-taek está desempregada, vivendo num porão sujo e apertado. Uma obra do acaso faz com que o filho adolescente da família comece a dar aulas de inglês à garota de uma família rica. Fascinados com a vida luxuosa destas pessoas, pai, mãe, filho e filha bolam um plano para se infiltrarem também na família burguesa, um a um. No entanto, os segredos e mentiras necessários à ascensão social custarão caro a todos.",
            "release_date": "2019-05-30"
        },
        {
            "popularity": 30.674,
            "id": 372058,
            "video": false,
            "vote_count": 4768,
            "vote_average": 8.5,
            "title": "your name.",
            "release_date": "2016-08-26",
            "original_language": "ja",
            "original_title": "君の名は。",
            "genre_ids": [
                10749,
                16,
                18
            ],
            "backdrop_path": "/7OMAfDJikBxItZBIug0NJig5DHD.jpg",
            "adult": false,
            "overview": "Mitsuha Miyamizu, uma colegial, deseja viver a vida de um garoto na cidade fervorosa de Tóquio, um sonho que contrasta com sua vida atual no interior. Enquanto isso na cidade, Taki Tachibana vive uma vida ocupada de colegial entre seus estudos e seu emprego de meio-período, esperando por um futuro na arquitetura. Um dia, Mitsuha acorda num quarto que não é dela, e se vê vivendo a vida dos sonhos em Tóquio, mas no corpo de Taki! Em outro lugar, Taki se encontra vivendo a vida de Mitsuha no humilde interior. Em busca de uma resposta para esse estranho fenômeno, começam a procurar um pelo outro.",
            "poster_path": "/iwWGMrybix3DZ4V7TJEL0IPURWT.jpg"
        },
        {
            "popularity": 25.487,
            "vote_count": 6520,
            "video": false,
            "poster_path": "/yB3AkkGMFplGlnPqQZ38W7bdD10.jpg",
            "id": 240,
            "adult": false,
            "backdrop_path": "/gLbBRyS7MBrmVUNce91Hmx9vzqI.jpg",
            "original_language": "en",
            "original_title": "The Godfather: Part II",
            "genre_ids": [
                80,
                18
            ],
            "title": "O Poderoso Chefão: Parte II",
            "vote_average": 8.5,
            "overview": "Início do século XX. Após a máfia local matar sua família, o jovem Vito foge da sua cidade na Sicília e vai para a América. Já adulto em Little Italy, Vito luta para ganhar a vida (legal ou ilegalmente) e manter sua esposa e filhos. Ele mata Black Hand Fanucci, que exigia dos comerciantes uma parte dos seus ganhos. Com a morte de Fanucci, o poderio de Vito cresce muito, mas sua família é o que mais importa para ele. Um legado de família que vai até os enormes negócios que nos anos 50 são controlados pelo caçula, Michael Corleone. Agora baseado em Lago Tahoe, Michael planeja fazer incursões em Las Vegas e Havana instalando negócios ligados ao lazer, mas descobre que aliados como Hyman Roth estão tentando matá-lo. Crescentemente paranoico, Michael também descobre que sua ambição acabou com seu casamento com Kay e até mesmo seu irmão Fredo o traiu. Escapando de uma acusação federal, Michael concentra sua atenção para lidar com os seus inimigos.",
            "release_date": "1974-12-20"
        },
        {
            "popularity": 36.616,
            "vote_count": 8201,
            "video": false,
            "poster_path": "/cndCt5dvf2USnl4ZfzM86x55Oy1.jpg",
            "id": 129,
            "adult": false,
            "backdrop_path": "/mnpRKVSXBX6jb56nabvmGKA0Wig.jpg",
            "original_language": "ja",
            "original_title": "千と千尋の神隠し",
            "genre_ids": [
                16,
                14,
                10751
            ],
            "title": "A Viagem de Chihiro",
            "vote_average": 8.5,
            "overview": "Chihiro é uma garota de dez anos que acredita que todo o universo deve atender aos seus caprichos. Ao descobrir que vai se mudar, ela fica furiosa. Na viagem, Chihiro percebe que seu pai se perdeu no caminho para a nova cidade, indo parar defronte a um túnel aparentemente sem fim, guardado por uma estranha estátua. Curiosos, os pais de Chihiro decidem entrar no túnel e Chihiro vai com eles. Chegam numa cidade sem nenhum habitante e os pais de Chihiro decidem comer a comida de uma das casas, enquanto a menina passeia. Ela encontra com Haku, garoto que lhe diz para ir embora o mais rápido possível e, ao reencontrar seus pais, Chihiro fica surpresa ao ver que eles se transformaram em gigantescos porcos. É o início da jornada de Chihiro por um mundo fantasma, povoado por seres fantásticos, no qual humanos não são bem-vindos.",
            "release_date": "2001-07-20"
        },
        {
            "popularity": 26.58,
            "vote_count": 9165,
            "video": false,
            "poster_path": "/iye7Fwd0puLTPwxsuHrL1YczeGu.jpg",
            "id": 497,
            "adult": false,
            "backdrop_path": "/Rlt20sEbOQKPVjia7lUilFm49W.jpg",
            "original_language": "en",
            "original_title": "The Green Mile",
            "genre_ids": [
                80,
                18,
                14
            ],
            "title": "À Espera de Um Milagre",
            "vote_average": 8.5,
            "overview": "1935, no corredor da morte de uma prisão sulista. Paul Edgecomb (Tom Hanks) é o chefe de guarda da prisão, que temJohn Coffey (Michael Clarke Duncan) como um de seus prisioneiros. Aos poucos, desenvolve-se entre eles uma relação incomum, baseada na descoberta de que o prisioneiro possui um dom mágico que é, ao mesmo tempo, misterioso e milagroso.",
            "release_date": "1999-12-10"
        },
        {
            "popularity": 41.214,
            "vote_count": 16970,
            "video": false,
            "poster_path": "/tptjnB2LDbuUWya9Cx5sQtv5hqb.jpg",
            "id": 680,
            "adult": false,
            "backdrop_path": "/suaEOtk1N1sgg2MTM7oZd2cfVp3.jpg",
            "original_language": "en",
            "original_title": "Pulp Fiction",
            "genre_ids": [
                80,
                53
            ],
            "title": "Pulp Fiction: Tempo de Violência",
            "vote_average": 8.5,
            "overview": "Jules Winnfield e Vincent Vega são dois assassinos que saem para recuperar uma mala roubada de seu empregador, o chefe da máfia Marsellus Wallace. Wallace também pede, alguns dias mais tarde, para Vincent levar sua esposa Mia para passear, quando o próprio Wallace estará fora da cidade. Butch Coolidge é um envelhecido boxer que é pago por Wallace para perder sua próxima luta. As vidas dessas pessoas aparentemente não relacionadas são tecidas compondo uma série de engraçados, estranhos e desnecessários incidentes.",
            "release_date": "1994-09-10"
        },
        {
            "popularity": 21.588,
            "id": 637,
            "video": false,
            "vote_count": 7919,
            "vote_average": 8.5,
            "title": "A Vida é Bela",
            "release_date": "1997-12-20",
            "original_language": "it",
            "original_title": "La vita è bella",
            "genre_ids": [
                35,
                18
            ],
            "backdrop_path": "/bORe0eI72D874TMawOOFvqWS6Xe.jpg",
            "adult": false,
            "overview": "Durante a Segunda Guerra Mundial na Itália, o judeu Guido (Roberto Benigni) e seu filho Giosué são levados para um campo de concentração nazista. Afastado da mulher, ele tem que usar sua imaginação para fazer o menino acreditar que estão participando de uma grande brincadeira, com o intuito de protegê-lo do terror e da violência que os cercam.",
            "poster_path": "/9RiH7dHwogipjkmwzgKlrQByuGk.jpg"
        },
        {
            "popularity": 18.753,
            "id": 311,
            "video": false,
            "vote_count": 2536,
            "vote_average": 8.4,
            "title": "Era uma Vez na América",
            "release_date": "1984-05-23",
            "original_language": "en",
            "original_title": "Once Upon a Time in America",
            "genre_ids": [
                18,
                80
            ],
            "backdrop_path": "/vnT6HzjLSDrAweHn9xWykb8Ii6T.jpg",
            "adult": false,
            "overview": "Na década de 20, David Aaronson (Robert De Niro) e Maximillian Bercouicz (James Woods), dois amigos de descendência judaica, crescem juntos cometendo pequenos crimes nas ruas do Lower East Side, Nova York. Gradualmente estes crimes assumem proporções maiores e a Máfia judaica passa a ter tanta força que os amigos do passado se tornam rivais. Esta saga percorre desde seus dias de infância, atravessa o apogeu durante a Lei Seca e retrata o reencontro deles após 35 anos.",
            "poster_path": "/we6L0Ik30xW8yio7FdqJXLtktT.jpg"
        },
        {
            "popularity": 37.565,
            "id": 155,
            "video": false,
            "vote_count": 20522,
            "vote_average": 8.4,
            "title": "Batman: O Cavaleiro das Trevas",
            "release_date": "2008-07-16",
            "original_language": "en",
            "original_title": "The Dark Knight",
            "genre_ids": [
                18,
                28,
                80,
                53
            ],
            "backdrop_path": "/hqkIcbrOHL86UncnHIsHVcVmzue.jpg",
            "adult": false,
            "overview": "Após dois anos desde o surgimento do Batman, os criminosos de Gotham City têm muito o que temer. Com a ajuda do tenente James Gordon e do promotor público Harvey Dent, Batman luta contra o crime organizado. Acuados com o combate, os chefes do crime aceitam a proposta feita pelo Coringa e o contratam para combater o Homem-Morcego.",
            "poster_path": "/sCF3RtQFhA7qMizMgOlcaPc5vC9.jpg"
        },
        {
            "popularity": 41.634,
            "vote_count": 16350,
            "video": false,
            "poster_path": "/iGkF8b8fEiPsFNxLWzsrvUJQtGT.jpg",
            "id": 13,
            "adult": false,
            "backdrop_path": "/wMgbnUVS9wbRGAdki8fqxKU1O0N.jpg",
            "original_language": "en",
            "original_title": "Forrest Gump",
            "genre_ids": [
                35,
                18,
                10749
            ],
            "title": "Forrest Gump - O Contador de Histórias",
            "vote_average": 8.4,
            "overview": "Quarenta anos da história dos Estados Unidos, vistos pelos olhos de Forrest Gump (Tom Hanks), um rapaz com QI abaixo da média e boas intenções. Por obra do acaso, ele consegue participar de momentos cruciais, como a Guerra do Vietnã e Watergate, mas continua pensando no seu amor de infância, Jenny Curran (Robin Wright).",
            "release_date": "1994-07-06"
        },
        {
            "popularity": 59.304,
            "vote_count": 14292,
            "video": false,
            "poster_path": "/ogZpvZXEPfvb1KeFh4tEcYO9fau.jpg",
            "id": 122,
            "adult": false,
            "backdrop_path": "/8BPZO0Bf8TeAy8znF43z8soK3ys.jpg",
            "original_language": "en",
            "original_title": "The Lord of the Rings: The Return of the King",
            "genre_ids": [
                28,
                12,
                14
            ],
            "title": "O Senhor dos Anéis: O Retorno do Rei",
            "vote_average": 8.4,
            "overview": "Sauron planeja um grande ataque a Minas Tirith, capital de Gondor, o que faz com que Gandalf (Ian McKellen) e Pippin (Billy Boyd) partam para o local na intenção de ajudar a resistência. Um exército é reunido por Theoden (Bernard Hill) em Rohan, em mais uma tentativa de deter as forças de Sauron. Enquanto isso Frodo (Elijah Wood), Sam (Sean Astin) e Gollum (Andy Serkins) seguem sua viagem rumo à Montanha da Perdição, para destruir o Um Anel.",
            "release_date": "2003-12-01"
        },
        {
            "popularity": 10.926,
            "id": 40096,
            "video": false,
            "vote_count": 526,
            "vote_average": 8.4,
            "title": "O Auto da Compadecida",
            "release_date": "2000-09-15",
            "original_language": "pt",
            "original_title": "O Auto da Compadecida",
            "genre_ids": [
                12,
                35
            ],
            "backdrop_path": "/alQqTpmEkxSLgajfEYTsTH6nAKB.jpg",
            "adult": false,
            "overview": "O Auto da Compadecida: As aventuras dos nordestinos João Grilo (Matheus Natchergaele), um sertanejo pobre e mentiroso, e Chicó (Selton Mello), o mais covarde dos homens. Ambos lutam pelo pão de cada dia e atravessam por vários episódios enganando a todos do pequeno vilarejo de Taperoá, no sertão da Paraíba. A salvação da dupla acontece com a aparição da Nossa Senhora (Fernanda Montenegro). Adaptação da obra de Ariano Suassuna.",
            "poster_path": "/uHEmM49YphluJnGep8Ef1qwD2QX.jpg"
        },
        {
            "popularity": 31.08,
            "id": 769,
            "video": false,
            "vote_count": 6420,
            "vote_average": 8.4,
            "title": "Os Bons Companheiros",
            "release_date": "1990-09-12",
            "original_language": "en",
            "original_title": "GoodFellas",
            "genre_ids": [
                18,
                80
            ],
            "backdrop_path": "/sw7mordbZxgITU877yTpZCud90M.jpg",
            "adult": false,
            "overview": "Henry Hill conta a sua história de garoto do Brooklyn, Nova York, que sempre sonhou ser gângster, começando sua \"carreira\" aos 11 anos e se tornando protegido de James \"Jimmy\" Conway, um mafioso em ascensão. Tratado como filho por mais de vinte anos, ele se envolve em golpes cada vez maiores e acaba se casando com Karen Hill, sua amante. Impossibilitado de ser totalmente \"adotado\" pela \"família\", o jovem ambicioso conquista prestígio, se envolve com o tráfico de drogas, prática grandes roubos e ganha muito dinheiro, mas os agentes federais estão na sua cola e o seu destino pode mudar a qualquer momento.",
            "poster_path": "/sNQGY1UXe6A5RVEJj0pFao6rCXN.jpg"
        },
        {
            "popularity": 58.503,
            "vote_count": 5874,
            "video": false,
            "poster_path": "/ejqquyk7r3GLXPir62rksUmPKj5.jpg",
            "id": 324857,
            "adult": false,
            "backdrop_path": "/uUiId6cG32JSRI6RyBQSvQtLjz2.jpg",
            "original_language": "en",
            "original_title": "Spider-Man: Into the Spider-Verse",
            "genre_ids": [
                28,
                12,
                16,
                35,
                878
            ],
            "title": "Homem-Aranha no Aranhaverso",
            "vote_average": 8.4,
            "overview": "Miles Morales é um jovem negro do Brooklyn que se tornou o Homem-Aranha inspirado no legado de Peter Parker, já falecido. Entretanto, ao visitar o túmulo de seu ídolo em uma noite chuvosa, ele é surpreendido com a presença do próprio Peter, vestindo o traje do herói aracnídeo sob um sobretudo. A surpresa fica ainda maior quando Miles descobre que ele veio de uma dimensão paralela, assim como outras variações do Homem-Aranha.",
            "release_date": "2018-12-06"
        },
        {
            "popularity": 26.679,
            "id": 429,
            "video": false,
            "vote_count": 4502,
            "vote_average": 8.4,
            "title": "Três Homens em Conflito",
            "release_date": "1966-12-23",
            "original_language": "it",
            "original_title": "Il buono, il brutto, il cattivo",
            "genre_ids": [
                37
            ],
            "backdrop_path": "/xGC2fY5KFmtuXnsuQwYQKFOLZFy.jpg",
            "adult": false,
            "overview": "Três homens que ganham a vida de forma questionável no velho oeste norte-americano sabem da existência de um magnífico tesouro enterrado; o problema é que cada um conhece apenas uma parte do segredo para encontrá-lo e nenhum deles está disposto a fazer um acordo para dividi-lo. Nesse cenário conflituoso os três tentarão encontrar uma forma de, ao mesmo tempo, descobrir o que os outros sabem e ser o primeiro a chegar ao prêmio.",
            "poster_path": "/tqAI9HHsiKAwpxRHhTlA1nK6viS.jpg"
        },
        {
            "popularity": 20.584,
            "id": 389,
            "video": false,
            "vote_count": 4186,
            "vote_average": 8.4,
            "title": "12 Homens e Uma Sentença",
            "release_date": "1957-03-25",
            "original_language": "en",
            "original_title": "12 Angry Men",
            "genre_ids": [
                18
            ],
            "backdrop_path": "/lH2Ga8OzjU1XlxJ73shOlPx6cRw.jpg",
            "adult": false,
            "overview": "Um jovem porto-riquenho é acusado do brutal crime de ter matado o próprio pai. Quando ele vai a julgamento, doze jurados se reúnem para decidir a sentença, levando em conta que o réu deve ser considerado inocente até que se prove o contrário. Onze dos jurados têm plena certeza de que ele é culpado, e votam pela condenação, mas um jurado acha que é melhor investigar mais para que a sentença seja correta. Para isso ele terá que enfrentar diferentes interpretações dos fatos, e a má vontade dos outros jurados, que só querem ir logo para suas casas.",
            "poster_path": "/q8RGf4SbVCObCySZ4PIGsn5wFm6.jpg"
        }
    ]
}
